…
# I sourced the code in a way that allows a user with the same path to do the same 
code_files <- list.files(here::here("Question1","code"), pattern = "\\.R$", full.names = TRUE)
invisible(lapply(code_files, source))


# Join HBO data and Song Name to Baby Names data according to matching Names , the Song names portion was dropped 
HBO_Bill_Names(data1= Baby_Names, data2 = Top_100_Billboard, data3 = HBO_credits)
```

    ## # A tibble: 3,973,541 × 7
    ##       Id name      Year Gender State Count source
    ##    <dbl> <chr>    <dbl> <chr>  <chr> <dbl> <chr> 
    ##  1     1 Mary      1910 F      AK       14 HBO   
    ##  2     2 Annie     1910 F      AK       12 HBO   
    ##  3     3 Anna      1910 F      AK       10 HBO   
    ##  4     4 Margaret  1910 F      AK        8 HBO   
    ##  5     5 Helen     1910 F      AK        7 HBO   
    ##  6     6 Elsie     1910 F      AK        6 HBO   
    ##  7     7 Lucy      1910 F      AK        6 HBO   
    ##  8     8 Dorothy   1910 F      AK        5 HBO   
    ##  9     9 Mary      1911 F      AK       12 HBO   
    ## 10    10 Margaret  1911 F      AK        7 HBO   
    ## # ℹ 3,973,531 more rows
…
